0 info it worked if it ends with ok
1 verbose cli [ 'node', '/usr/local/bin/npm', 'run', 'example2' ]
2 info using npm@1.4.23
3 info using node@v0.10.31
4 verbose run-script [ 'preexample2', 'example2', 'postexample2' ]
5 info preexample2 my-project@1.0.0
6 info example2 my-project@1.0.0
7 verbose unsafe-perm in lifecycle true
8 info my-project@1.0.0 Failed to exec example2 script
9 error my-project@1.0.0 example2: `babel-node example2.js`
9 error Exit status 8
10 error Failed at the my-project@1.0.0 example2 script.
10 error This is most likely a problem with the my-project package,
10 error not with npm itself.
10 error Tell the author that this fails on your system:
10 error     babel-node example2.js
10 error You can get their info via:
10 error     npm owner ls my-project
10 error There is likely additional logging output above.
11 error System Darwin 15.0.0
12 error command "node" "/usr/local/bin/npm" "run" "example2"
13 error cwd /Users/ninatemolder/Projects/Persgroep/docs/Frontend Gilde/examples/slide2 -- vars
14 error node -v v0.10.31
15 error npm -v 1.4.23
16 error code ELIFECYCLE
17 verbose exit [ 1, true ]
